{
  "models": [
    {
      "model": "AUTODETECT",
      "title": "Ollama",
      "apiBase": "http://localhost:11434",
      "provider": "ollama"
    }
  ],
  "customCommands": [
    {
      "name": "test",
      "prompt": "{{{ input }}}\n\nWrite a comprehensive set of unit tests for the selected code. It should setup, run tests that check for correctness including important edge cases, and teardown. Ensure that the tests are complete and sophisticated. Give the tests just as chat output, don't edit any file.",
      "description": "Write unit tests for highlighted code"
    }
  ],
  "tabAutocompleteModel": {
    "title": "Starcoder2 3b",
    "provider": "ollama",
    "model": "starcoder2:3b"
  },
  "contextProviders": [
    {
      "name": "code",
      "params": {}
    },
    {
      "name": "docs",
      "params": {}
    },
    {
      "name": "diff",
      "params": {}
    },
    {
      "name": "terminal",
      "params": {}
    },
    {
      "name": "problems",
      "params": {}
    },
    {
      "name": "folder",
      "params": {}
    },
    {
      "name": "codebase",
      "params": {}
    }
  ],
  "slashCommands": [
    {
      "name": "edit",
      "description": "Edit selected code"
    },
    {
      "name": "comment",
      "description": "Write comments for the selected code"
    },
    {
      "name": "share",
      "description": "Export the current chat session to markdown"
    },
    {
      "name": "cmd",
      "description": "Generate a shell command"
    },
    {
      "name": "commit",
      "description": "Generate a git commit message"
    }
  ]
}