@startuml "Media Player Audio"
!include ./hardware/optiplex.puml

card optiplex {
	agent "PipeWire" as pipewire
}

card "USB 5.1 Output" as usb_speakers

card "5.1 speakers" as speakers

pipewire ---> usb_speakers
usb_speakers -- speakers
@enduml
